BraTS20_Training_191,104
BraTS20_Training_191_001,116
BraTS20_Training_191_002,141
BraTS20_Training_191_003,173
BraTS20_Training_191_004,102
BraTS20_Training_191_005,111
BraTS20_Training_191_006,119
BraTS20_Training_191_007,69
BraTS20_Training_191_008,166
BraTS20_Training_191_009,128
BraTS20_Training_191_010,127
BraTS20_Training_153,359
BraTS20_Training_153_001,298
BraTS20_Training_153_002,283
BraTS20_Training_153_003,337
BraTS20_Training_153_004,376
BraTS20_Training_153_005,264
BraTS20_Training_153_006,293
BraTS20_Training_153_007,295
BraTS20_Training_153_008,366
BraTS20_Training_153_009,357
BraTS20_Training_153_010,283
BraTS20_Training_054,178
BraTS20_Training_054_001,188
BraTS20_Training_054_002,191
BraTS20_Training_054_003,219
BraTS20_Training_054_004,190
BraTS20_Training_054_005,180
BraTS20_Training_054_006,187
BraTS20_Training_054_007,180
BraTS20_Training_054_008,187
BraTS20_Training_054_009,219
BraTS20_Training_054_010,315
BraTS20_Training_231,389
BraTS20_Training_231_001,399
BraTS20_Training_231_002,406
BraTS20_Training_231_003,362
BraTS20_Training_231_004,376
BraTS20_Training_231_005,368
BraTS20_Training_231_006,337
BraTS20_Training_231_007,292
BraTS20_Training_231_008,322
BraTS20_Training_231_009,290
BraTS20_Training_231_010,435
BraTS20_Training_239,168
BraTS20_Training_239_001,159
BraTS20_Training_239_002,182
BraTS20_Training_239_003,157
BraTS20_Training_239_004,148
BraTS20_Training_239_005,162
BraTS20_Training_239_006,174
BraTS20_Training_239_007,124
BraTS20_Training_239_008,115
BraTS20_Training_239_009,124
BraTS20_Training_239_010,131
BraTS20_Training_216,79
BraTS20_Training_216_001,103
BraTS20_Training_216_002,81
BraTS20_Training_216_003,77
BraTS20_Training_216_004,91
BraTS20_Training_216_005,133
BraTS20_Training_216_006,71
BraTS20_Training_216_007,131
BraTS20_Training_216_008,109
BraTS20_Training_216_009,116
BraTS20_Training_216_010,101
BraTS20_Training_046,282
BraTS20_Training_046_001,319
BraTS20_Training_046_002,344
BraTS20_Training_046_003,312
BraTS20_Training_046_004,299
BraTS20_Training_046_005,318
BraTS20_Training_046_006,211
BraTS20_Training_046_007,302
BraTS20_Training_046_008,310
BraTS20_Training_046_009,310
BraTS20_Training_046_010,319
BraTS20_Training_055,421
BraTS20_Training_055_001,466
BraTS20_Training_055_002,531
BraTS20_Training_055_003,517
BraTS20_Training_055_004,555
BraTS20_Training_055_005,424
BraTS20_Training_055_006,439
BraTS20_Training_055_007,482
BraTS20_Training_055_008,508
BraTS20_Training_055_009,489
BraTS20_Training_055_010,450
BraTS20_Training_160,473
BraTS20_Training_160_001,545
BraTS20_Training_160_002,526
BraTS20_Training_160_003,431
BraTS20_Training_160_004,482
BraTS20_Training_160_005,452
BraTS20_Training_160_006,527
BraTS20_Training_160_007,523
BraTS20_Training_160_008,475
BraTS20_Training_160_009,552
BraTS20_Training_160_010,492
BraTS20_Training_064,23
BraTS20_Training_064_001,13
BraTS20_Training_064_002,27
BraTS20_Training_064_003,33
BraTS20_Training_064_004,20
BraTS20_Training_064_005,18
BraTS20_Training_064_006,20
BraTS20_Training_064_007,13
BraTS20_Training_064_008,16
BraTS20_Training_064_009,40
BraTS20_Training_064_010,28
BraTS20_Training_241,183
BraTS20_Training_241_001,188
BraTS20_Training_241_002,191
BraTS20_Training_241_003,165
BraTS20_Training_241_004,187
BraTS20_Training_241_005,198
BraTS20_Training_241_006,99
BraTS20_Training_241_007,172
BraTS20_Training_241_008,175
BraTS20_Training_241_009,168
BraTS20_Training_241_010,139
BraTS20_Training_121,652
BraTS20_Training_121_001,593
BraTS20_Training_121_002,614
BraTS20_Training_121_003,640
BraTS20_Training_121_004,657
BraTS20_Training_121_005,323
BraTS20_Training_121_006,664
BraTS20_Training_121_007,421
BraTS20_Training_121_008,538
BraTS20_Training_121_009,565
BraTS20_Training_121_010,663
BraTS20_Training_043,456
BraTS20_Training_043_001,459
BraTS20_Training_043_002,432
BraTS20_Training_043_003,541
BraTS20_Training_043_004,443
BraTS20_Training_043_005,448
BraTS20_Training_043_006,425
BraTS20_Training_043_007,430
BraTS20_Training_043_008,428
BraTS20_Training_043_009,521
BraTS20_Training_043_010,443
BraTS20_Training_115,141
BraTS20_Training_115_001,147
BraTS20_Training_115_002,229
BraTS20_Training_115_003,115
BraTS20_Training_115_004,174
BraTS20_Training_115_005,135
BraTS20_Training_115_006,158
BraTS20_Training_115_007,116
BraTS20_Training_115_008,110
BraTS20_Training_115_009,169
BraTS20_Training_115_010,286
BraTS20_Training_162,111
BraTS20_Training_162_001,44
BraTS20_Training_162_002,83
BraTS20_Training_162_003,32
BraTS20_Training_162_004,95
BraTS20_Training_162_005,74
BraTS20_Training_162_006,108
BraTS20_Training_162_007,39
BraTS20_Training_162_008,105
BraTS20_Training_162_009,170
BraTS20_Training_162_010,135
BraTS20_Training_034,1130
BraTS20_Training_034_001,1148
BraTS20_Training_034_002,1159
BraTS20_Training_034_003,1124
BraTS20_Training_034_004,1124
BraTS20_Training_034_005,1121
BraTS20_Training_034_006,1150
BraTS20_Training_034_007,541
BraTS20_Training_034_008,1155
BraTS20_Training_034_009,1104
BraTS20_Training_034_010,1085
BraTS20_Training_235,9
BraTS20_Training_235_001,22
BraTS20_Training_235_002,14
BraTS20_Training_235_003,16
BraTS20_Training_235_004,54
BraTS20_Training_235_005,24
BraTS20_Training_235_006,15
BraTS20_Training_235_007,15
BraTS20_Training_235_008,31
BraTS20_Training_235_009,3
BraTS20_Training_235_010,13
BraTS20_Training_107,367
BraTS20_Training_107_001,375
BraTS20_Training_107_002,409
BraTS20_Training_107_003,391
BraTS20_Training_107_004,389
BraTS20_Training_107_005,387
BraTS20_Training_107_006,393
BraTS20_Training_107_007,379
BraTS20_Training_107_008,364
BraTS20_Training_107_009,402
BraTS20_Training_107_010,351
BraTS20_Training_250,87
BraTS20_Training_250_001,66
BraTS20_Training_250_002,112
BraTS20_Training_250_003,105
BraTS20_Training_250_004,132
BraTS20_Training_250_005,103
BraTS20_Training_250_006,162
BraTS20_Training_250_007,47
BraTS20_Training_250_008,145
BraTS20_Training_250_009,70
BraTS20_Training_250_010,66
BraTS20_Training_163,390
BraTS20_Training_163_001,347
BraTS20_Training_163_002,403
BraTS20_Training_163_003,273
BraTS20_Training_163_004,391
BraTS20_Training_163_005,287
BraTS20_Training_163_006,396
BraTS20_Training_163_007,381
BraTS20_Training_163_008,311
BraTS20_Training_163_009,320
BraTS20_Training_163_010,314
BraTS20_Training_042,632
BraTS20_Training_042_001,605
BraTS20_Training_042_002,618
BraTS20_Training_042_003,660
BraTS20_Training_042_004,605
BraTS20_Training_042_005,666
BraTS20_Training_042_006,595
BraTS20_Training_042_007,652
BraTS20_Training_042_008,215
BraTS20_Training_042_009,651
BraTS20_Training_042_010,636
BraTS20_Training_061,1323
BraTS20_Training_061_001,1407
BraTS20_Training_061_002,1156
BraTS20_Training_061_003,1325
BraTS20_Training_061_004,1322
BraTS20_Training_061_005,1188
BraTS20_Training_061_006,1342
BraTS20_Training_061_007,1349
BraTS20_Training_061_008,1299
BraTS20_Training_061_009,1294
BraTS20_Training_061_010,1230
BraTS20_Training_062,329
BraTS20_Training_062_001,335
BraTS20_Training_062_002,326
BraTS20_Training_062_003,337
BraTS20_Training_062_004,322
BraTS20_Training_062_005,315
BraTS20_Training_062_006,319
BraTS20_Training_062_007,321
BraTS20_Training_062_008,337
BraTS20_Training_062_009,329
BraTS20_Training_062_010,365
BraTS20_Training_021,471
BraTS20_Training_021_001,466
BraTS20_Training_021_002,460
BraTS20_Training_021_003,347
BraTS20_Training_021_004,322
BraTS20_Training_021_005,442
BraTS20_Training_021_006,468
BraTS20_Training_021_007,352
BraTS20_Training_021_008,479
BraTS20_Training_021_009,478
BraTS20_Training_021_010,455
BraTS20_Training_201,267
BraTS20_Training_201_001,294
BraTS20_Training_201_002,285
BraTS20_Training_201_003,246
BraTS20_Training_201_004,284
BraTS20_Training_201_005,296
BraTS20_Training_201_006,213
BraTS20_Training_201_007,228
BraTS20_Training_201_008,294
BraTS20_Training_201_009,258
BraTS20_Training_201_010,272
BraTS20_Training_249,431
BraTS20_Training_249_001,403
BraTS20_Training_249_002,414
BraTS20_Training_249_003,396
BraTS20_Training_249_004,391
BraTS20_Training_249_005,399
BraTS20_Training_249_006,368
BraTS20_Training_249_007,390
BraTS20_Training_249_008,436
BraTS20_Training_249_009,402
BraTS20_Training_249_010,425
BraTS20_Training_008,423
BraTS20_Training_008_001,313
BraTS20_Training_008_002,401
BraTS20_Training_008_003,354
BraTS20_Training_008_004,643
BraTS20_Training_008_005,594
BraTS20_Training_008_006,449
BraTS20_Training_008_007,417
BraTS20_Training_008_008,380
BraTS20_Training_008_009,529
BraTS20_Training_008_010,462
BraTS20_Training_022,315
BraTS20_Training_022_001,311
BraTS20_Training_022_002,338
BraTS20_Training_022_003,340
BraTS20_Training_022_004,311
BraTS20_Training_022_005,340
BraTS20_Training_022_006,293
BraTS20_Training_022_007,315
BraTS20_Training_022_008,304
BraTS20_Training_022_009,297
BraTS20_Training_022_010,352
BraTS20_Training_127,260
BraTS20_Training_127_001,288
BraTS20_Training_127_002,273
BraTS20_Training_127_003,331
BraTS20_Training_127_004,239
BraTS20_Training_127_005,296
BraTS20_Training_127_006,299
BraTS20_Training_127_007,269
BraTS20_Training_127_008,336
BraTS20_Training_127_009,310
BraTS20_Training_127_010,317
BraTS20_Training_097,20
BraTS20_Training_097_001,54
BraTS20_Training_097_002,28
BraTS20_Training_097_003,21
BraTS20_Training_097_004,26
BraTS20_Training_097_005,30
BraTS20_Training_097_006,23
BraTS20_Training_097_007,32
BraTS20_Training_097_008,36
BraTS20_Training_097_009,17
BraTS20_Training_097_010,17
BraTS20_Training_145,83
BraTS20_Training_145_001,99
BraTS20_Training_145_002,84
BraTS20_Training_145_003,83
BraTS20_Training_145_004,123
BraTS20_Training_145_005,136
BraTS20_Training_145_006,112
BraTS20_Training_145_007,87
BraTS20_Training_145_008,129
BraTS20_Training_145_009,91
BraTS20_Training_145_010,151
BraTS20_Training_016,353
BraTS20_Training_016_001,401
BraTS20_Training_016_002,395
BraTS20_Training_016_003,394
BraTS20_Training_016_004,390
BraTS20_Training_016_005,330
BraTS20_Training_016_006,411
BraTS20_Training_016_007,365
BraTS20_Training_016_008,351
BraTS20_Training_016_009,378
BraTS20_Training_016_010,335
BraTS20_Training_067,364
BraTS20_Training_067_001,262
BraTS20_Training_067_002,304
BraTS20_Training_067_003,305
BraTS20_Training_067_004,387
BraTS20_Training_067_005,352
BraTS20_Training_067_006,339
BraTS20_Training_067_007,274
BraTS20_Training_067_008,290
BraTS20_Training_067_009,348
BraTS20_Training_067_010,397
BraTS20_Training_082,403
BraTS20_Training_082_001,369
BraTS20_Training_082_002,382
BraTS20_Training_082_003,331
BraTS20_Training_082_004,389
BraTS20_Training_082_005,411
BraTS20_Training_082_006,373
BraTS20_Training_082_007,368
BraTS20_Training_082_008,385
BraTS20_Training_082_009,322
BraTS20_Training_082_010,412
BraTS20_Training_251,291
BraTS20_Training_251_001,293
BraTS20_Training_251_002,280
BraTS20_Training_251_003,296
BraTS20_Training_251_004,298
BraTS20_Training_251_005,296
BraTS20_Training_251_006,300
BraTS20_Training_251_007,281
BraTS20_Training_251_008,273
BraTS20_Training_251_009,285
BraTS20_Training_251_010,295
BraTS20_Training_006,265
BraTS20_Training_006_001,253
BraTS20_Training_006_002,189
BraTS20_Training_006_003,222
BraTS20_Training_006_004,280
BraTS20_Training_006_005,339
BraTS20_Training_006_006,251
BraTS20_Training_006_007,225
BraTS20_Training_006_008,246
BraTS20_Training_006_009,285
BraTS20_Training_006_010,212
BraTS20_Training_098,915
BraTS20_Training_098_001,943
BraTS20_Training_098_002,955
BraTS20_Training_098_003,838
BraTS20_Training_098_004,1035
BraTS20_Training_098_005,999
BraTS20_Training_098_006,461
BraTS20_Training_098_007,1086
BraTS20_Training_098_008,939
BraTS20_Training_098_009,1083
BraTS20_Training_098_010,1095
BraTS20_Training_001,289
BraTS20_Training_001_003,271
BraTS20_Training_001_004,277
BraTS20_Training_001_005,267
BraTS20_Training_001_006,290
BraTS20_Training_001_007,268
BraTS20_Training_001_008,285
BraTS20_Training_001_009,270
BraTS20_Training_001_010,213
BraTS20_Training_154,653
BraTS20_Training_154_001,668
BraTS20_Training_154_002,673
BraTS20_Training_154_003,659
BraTS20_Training_154_004,679
BraTS20_Training_154_005,656
BraTS20_Training_154_006,402
BraTS20_Training_154_007,669
BraTS20_Training_154_008,549
BraTS20_Training_154_009,668
BraTS20_Training_154_010,668
BraTS20_Training_158,474
BraTS20_Training_158_001,395
BraTS20_Training_158_002,417
BraTS20_Training_158_003,404
BraTS20_Training_158_004,362
BraTS20_Training_158_005,377
BraTS20_Training_158_006,420
BraTS20_Training_158_007,394
BraTS20_Training_158_008,413
BraTS20_Training_158_009,413
BraTS20_Training_158_010,427
BraTS20_Training_011,372
BraTS20_Training_011_001,433
BraTS20_Training_011_002,352
BraTS20_Training_011_003,318
BraTS20_Training_011_004,347
BraTS20_Training_011_005,366
BraTS20_Training_011_006,422
BraTS20_Training_011_007,314
BraTS20_Training_011_008,389
BraTS20_Training_011_009,406
BraTS20_Training_011_010,380
BraTS20_Training_164,90
BraTS20_Training_164_001,92
BraTS20_Training_164_002,93
BraTS20_Training_164_003,90
BraTS20_Training_164_004,98
BraTS20_Training_164_005,68
BraTS20_Training_164_006,63
BraTS20_Training_164_007,86
BraTS20_Training_164_008,93
BraTS20_Training_164_009,74
BraTS20_Training_164_010,95
BraTS20_Training_168,278
BraTS20_Training_168_001,254
BraTS20_Training_168_002,264
BraTS20_Training_168_003,264
BraTS20_Training_168_004,259
BraTS20_Training_168_005,238
BraTS20_Training_168_006,243
BraTS20_Training_168_007,206
BraTS20_Training_168_008,248
BraTS20_Training_168_009,210
BraTS20_Training_168_010,258
BraTS20_Training_031,254
BraTS20_Training_031_001,208
BraTS20_Training_031_002,99
BraTS20_Training_031_003,143
BraTS20_Training_031_004,186
BraTS20_Training_031_005,228
BraTS20_Training_031_006,145
BraTS20_Training_031_007,149
BraTS20_Training_031_008,294
BraTS20_Training_031_009,198
BraTS20_Training_031_010,191
BraTS20_Training_053,450
BraTS20_Training_053_001,493
BraTS20_Training_053_002,555
BraTS20_Training_053_003,477
BraTS20_Training_053_004,447
BraTS20_Training_053_005,547
BraTS20_Training_053_006,543
BraTS20_Training_053_007,512
BraTS20_Training_053_008,516
BraTS20_Training_053_009,531
BraTS20_Training_053_010,524
BraTS20_Training_179,1329
BraTS20_Training_179_001,1266
BraTS20_Training_179_002,1310
BraTS20_Training_179_003,1396
BraTS20_Training_179_004,1345
BraTS20_Training_179_005,1105
BraTS20_Training_179_006,1132
BraTS20_Training_179_007,1363
BraTS20_Training_179_008,1293
BraTS20_Training_179_009,1075
BraTS20_Training_179_010,1223
BraTS20_Training_099,215
BraTS20_Training_099_001,146
BraTS20_Training_099_002,159
BraTS20_Training_099_003,167
BraTS20_Training_099_004,227
BraTS20_Training_099_005,130
BraTS20_Training_099_006,153
BraTS20_Training_099_007,285
BraTS20_Training_099_008,151
BraTS20_Training_099_009,182
BraTS20_Training_099_010,195
BraTS20_Training_063,363
BraTS20_Training_063_001,778
BraTS20_Training_063_002,1048
BraTS20_Training_063_003,955
BraTS20_Training_063_004,984
BraTS20_Training_063_005,625
BraTS20_Training_063_006,847
BraTS20_Training_063_007,339
BraTS20_Training_063_008,404
BraTS20_Training_063_009,1052
BraTS20_Training_063_010,418
BraTS20_Training_246,1278
BraTS20_Training_246_001,1184
BraTS20_Training_246_002,1156
BraTS20_Training_246_003,1284
BraTS20_Training_246_004,1282
BraTS20_Training_246_005,1302
BraTS20_Training_246_006,1357
BraTS20_Training_246_007,1285
BraTS20_Training_246_008,1311
BraTS20_Training_246_009,1345
BraTS20_Training_246_010,1289
BraTS20_Training_178,314
BraTS20_Training_178_001,326
BraTS20_Training_178_002,356
BraTS20_Training_178_003,382
BraTS20_Training_178_004,324
BraTS20_Training_178_005,301
BraTS20_Training_178_006,341
BraTS20_Training_178_007,300
BraTS20_Training_178_008,312
BraTS20_Training_178_009,307
BraTS20_Training_178_010,323
BraTS20_Training_057,302
BraTS20_Training_057_001,311
BraTS20_Training_057_002,302
BraTS20_Training_057_003,313
BraTS20_Training_057_004,301
BraTS20_Training_057_005,311
BraTS20_Training_057_006,295
BraTS20_Training_057_007,216
BraTS20_Training_057_008,305
BraTS20_Training_057_009,244
BraTS20_Training_057_010,283
